<?xml version="1.0" standalone="no"?>
<!DOCTYPE svg PUBLIC "-//W3C//DTD SVG 1.1//EN" "http://www.w3.org/Graphics/SVG/1.1/DTD/svg11.dtd" >
<svg xmlns="http://www.w3.org/2000/svg" xmlns:xlink="http://www.w3.org/1999/xlink" version="1.1" viewBox="-10 0 360 300">
   <path fill="currentColor"
d="M255 74q7 -7 13.5 -13t10.5 -9l4 -3l15 13v1q-2 2 -21 19l-21 19h-15q-15 0 -15 -1q2 -2 29 -26zM85 182v-62h80h81v62v63h-81h-80v-63zM149 162q-9 -3 -18 -1q-20 8 -16 28q2 8 7 13q8 7 17 7q11 0 17 -7q7 -8 8 -17q-1 -7 -2 -10q-5 -8 -13 -13zM61 22q7 -2 13 -2
q19 1 28 17q7 18 -6 34l-3 4l7 12l8 13h-12h-13l-5 -10l-6 -10l-5 -1q-22 -6 -23 -29q1 -19 17 -28zM141 22q7 -2 13 -2q25 0 29 23q1 4 1 7q-2 23 -23 29l-5 1l-6 10l-5 10h-13h-12l8 -13l7 -12l-3 -4q-17 -19 -2 -39q5 -6 11 -10z" />
</svg>
