<?xml version="1.0" standalone="no"?>
<!DOCTYPE svg PUBLIC "-//W3C//DTD SVG 1.1//EN" "http://www.w3.org/Graphics/SVG/1.1/DTD/svg11.dtd" >
<svg xmlns="http://www.w3.org/2000/svg" xmlns:xlink="http://www.w3.org/1999/xlink" version="1.1" viewBox="-10 0 210 300">
   <path fill="currentColor"
d="M70 40v-75h10h10v75v75h-10h-10v-75zM20 55v-60h10h10v60v60h-10h-10v-60zM86 125h15q18 1 32 9q30 17 41 49q2 8 2 21q0 15 -2 21q-15 41 -55 55q-8 2 -21 2q-15 0 -21 -2q-40 -15 -54 -55q-2 -8 -3 -21q1 -21 9 -36q20 -35 57 -43z" />
</svg>
